hw5
…
Data cleaning:

extract geographic latitude and longitude from the variable Store Location

make sure the variables are in the correct type, by converting incorrect variable types.

extract year, month and day from the variable Date as separate columns.

liq_sales$long = substr(liq_sales$`Store Location`,8,17)
liq_sales$lat = substr(liq_sales$`Store Location`,18,27)
liq_sales

## # A tibble: 63,103 x 26
##    `Invoice/Item N~ Date  `Store Number` `Store Name` Address City  `Zip Code`
##    <chr>            <chr>          <dbl> <chr>        <chr>   <chr>      <dbl>
##  1 INV-16712000040  01/0~           2500 Hy-Vee Food~ 3800 W~ Ames       50010
##  2 INV-16712000012  01/0~           2500 Hy-Vee Food~ 3800 W~ Ames       50010
##  3 INV-16712000070  01/0~           2500 Hy-Vee Food~ 3800 W~ Ames       50010
##  4 INV-16712000009  01/0~           2500 Hy-Vee Food~ 3800 W~ Ames       50010
##  5 INV-16712000160  01/0~           2500 Hy-Vee Food~ 3800 W~ Ames       50010
##  6 INV-16712000119  01/0~           2500 Hy-Vee Food~ 3800 W~ Ames       50010
##  7 INV-16712000153  01/0~           2500 Hy-Vee Food~ 3800 W~ Ames       50010
##  8 INV-16712000114  01/0~           2500 Hy-Vee Food~ 3800 W~ Ames       50010
##  9 INV-16834400018  01/0~           4251 AJ's Liquor~ 4518 M~ Ames       50014
## 10 INV-16834600031  01/0~           2500 Hy-Vee Food~ 3800 W~ Ames       50010
## # ... with 63,093 more rows, and 19 more variables: `Store Location` <chr>,
## #   `County Number` <dbl>, County <chr>, Category <dbl>, `Category Name` <chr>,
## #   `Vendor Number` <chr>, `Vendor Name` <chr>, `Item Number` <dbl>, `Item
## #   Description` <chr>, Pack <dbl>, `Bottle Volume (ml)` <dbl>, `State Bottle
## #   Cost` <dbl>, `State Bottle Retail` <dbl>, `Bottles Sold` <dbl>, `Sale
## #   (Dollars)` <dbl>, `Volume Sold (Liters)` <dbl>, `Volume Sold
## #   (Gallons)` <dbl>, long <chr>, lat <chr>

liq_sales$date_1 = substr(liq_sales$Date,1,1)
liq_sales$month = substr(liq_sales$Date,5,5)
liq_sales$year = substr(liq_sales$Date,5,10)

liq_sales

## # A tibble: 63,103 x 29
##    `Invoice/Item N~ Date  `Store Number` `Store Name` Address City  `Zip Code`
##    <chr>            <chr>          <dbl> <chr>        <chr>   <chr>      <dbl>
##  1 INV-16712000040  01/0~           2500 Hy-Vee Food~ 3800 W~ Ames       50010
##  2 INV-16712000012  01/0~           2500 Hy-Vee Food~ 3800 W~ Ames       50010
##  3 INV-16712000070  01/0~           2500 Hy-Vee Food~ 3800 W~ Ames       50010
##  4 INV-16712000009  01/0~           2500 Hy-Vee Food~ 3800 W~ Ames       50010
##  5 INV-16712000160  01/0~           2500 Hy-Vee Food~ 3800 W~ Ames       50010
##  6 INV-16712000119  01/0~           2500 Hy-Vee Food~ 3800 W~ Ames       50010
##  7 INV-16712000153  01/0~           2500 Hy-Vee Food~ 3800 W~ Ames       50010
##  8 INV-16712000114  01/0~           2500 Hy-Vee Food~ 3800 W~ Ames       50010
##  9 INV-16834400018  01/0~           4251 AJ's Liquor~ 4518 M~ Ames       50014
## 10 INV-16834600031  01/0~           2500 Hy-Vee Food~ 3800 W~ Ames       50010
## # ... with 63,093 more rows, and 22 more variables: `Store Location` <chr>,
## #   `County Number` <dbl>, County <chr>, Category <dbl>, `Category Name` <chr>,
## #   `Vendor Number` <chr>, `Vendor Name` <chr>, `Item Number` <dbl>, `Item
## #   Description` <chr>, Pack <dbl>, `Bottle Volume (ml)` <dbl>, `State Bottle
## #   Cost` <dbl>, `State Bottle Retail` <dbl>, `Bottles Sold` <dbl>, `Sale
## #   (Dollars)` <dbl>, `Volume Sold (Liters)` <dbl>, `Volume Sold
## #   (Gallons)` <dbl>, long <chr>, lat <chr>, date_1 <chr>, month <chr>,
## #   year <chr>
…
amt_of_money_spent <- sum(liq_sales$`Sale (Dollars)`)
amt_of_money_spent

## [1] 9052392

Response: The number of sales are 63103. Volume of liqur sold is 590873.8 Litres. Amount of money spent is 9,052,382 dollars

Plot volume sold by day (use a scatterplot of volume by day and facet by month). Discover trends with the help of geom_smooth. Describe any patterns.

cc = liq_sales %>%
  group_by(liq_sales$Date) %>%
  summarize(volume = sum(`Volume Sold (Liters)`, na.rm = TRUE))
cc

## # A tibble: 157 x 2
##    `liq_sales$Date` volume
##    <chr>             <dbl>
##  1 01/03/2019        6816.
##  2 01/04/2019        1256.
##  3 01/09/2019        6732.
##  4 01/10/2019         135 
##  5 01/11/2019        1205.
##  6 01/16/2019        8227.
##  7 01/18/2019         232.
##  8 01/24/2019        9239.
##  9 01/25/2019        2329.
## 10 01/30/2019        8752.
## # ... with 147 more rows

colnames(cc) <- c("Day","volume")
cc$month = substr(cc$Day,1,2)
cc

## # A tibble: 157 x 3
##    Day        volume month
##    <chr>       <dbl> <chr>
##  1 01/03/2019  6816. 01   
##  2 01/04/2019  1256. 01   
##  3 01/09/2019  6732. 01   
##  4 01/10/2019   135  01   
##  5 01/11/2019  1205. 01   
##  6 01/16/2019  8227. 01   
##  7 01/18/2019   232. 01   
##  8 01/24/2019  9239. 01   
##  9 01/25/2019  2329. 01   
## 10 01/30/2019  8752. 01   
## # ... with 147 more rows
…
